%YAML 1.1
%TAG !u! tag:unity3d.com,2011:
--- !u!1045 &1
EditorBuildSettings:
  m_ObjectHideFlags: 0
  serializedVersion: 2
  m_Scenes:
  - enabled: 1
    path: Assets/Scenes/Menu.unity
    guid: aa50ba3873756d144ac0db78a82c6f42
  - enabled: 1
    path: Assets/Scenes/Game.unity
    guid: 9fc0d4010bbf28b4594072e72b8655ab
  - enabled: 1
    path: Assets/Scenes/Titles.unity
    guid: b9274a6986f1df545845d6972299e6fb
  m_configObjects: {}
